%YAML 1.1
%TAG !u! tag:unity3d.com,2011:
--- !u!1045 &1
EditorBuildSettings:
  m_ObjectHideFlags: 0
  serializedVersion: 2
  m_Scenes:
  - enabled: 1
    path: Assets/Scenes/MainScene.unity
    guid: 2cda990e2423bbf4892e6590ba056729
  - enabled: 1
    path: Assets/Scenes/LoseScene.unity
    guid: 038fecf6466e1954b800fbd7a15f00a7
  - enabled: 1
    path: Assets/Scenes/WinScene.unity
    guid: 1ecae1b87b84a3d40b3b98d2b1b07204
  m_configObjects: {}
